{
  "files": {
    "static/css/0.1738d1df.chunk.css": "./static/css/0.1738d1df.chunk.css",
    "static/js/0.58cb32b8.chunk.js": "./static/js/0.58cb32b8.chunk.js",
    "static/js/0.58cb32b8.chunk.js.map": "./static/js/0.58cb32b8.chunk.js.map",
    "static/css/1.da01ecc2.chunk.css": "./static/css/1.da01ecc2.chunk.css",
    "static/js/1.f019b9b6.chunk.js": "./static/js/1.f019b9b6.chunk.js",
    "static/js/1.f019b9b6.chunk.js.map": "./static/js/1.f019b9b6.chunk.js.map",
    "static/css/2.d63a6702.chunk.css": "./static/css/2.d63a6702.chunk.css",
    "static/js/2.c9e6853f.chunk.js": "./static/js/2.c9e6853f.chunk.js",
    "static/js/2.c9e6853f.chunk.js.map": "./static/js/2.c9e6853f.chunk.js.map",
    "static/css/3.9c5307d0.chunk.css": "./static/css/3.9c5307d0.chunk.css",
    "static/js/3.ebeb7453.chunk.js": "./static/js/3.ebeb7453.chunk.js",
    "static/js/3.ebeb7453.chunk.js.map": "./static/js/3.ebeb7453.chunk.js.map",
    "static/js/4.d9c41bed.chunk.js": "./static/js/4.d9c41bed.chunk.js",
    "static/js/4.d9c41bed.chunk.js.map": "./static/js/4.d9c41bed.chunk.js.map",
    "static/css/5.dcb8c350.chunk.css": "./static/css/5.dcb8c350.chunk.css",
    "static/js/5.e1ce8555.chunk.js": "./static/js/5.e1ce8555.chunk.js",
    "static/js/5.e1ce8555.chunk.js.map": "./static/js/5.e1ce8555.chunk.js.map",
    "static/css/6.0621f8ac.chunk.css": "./static/css/6.0621f8ac.chunk.css",
    "static/js/6.267a68e0.chunk.js": "./static/js/6.267a68e0.chunk.js",
    "static/js/6.267a68e0.chunk.js.map": "./static/js/6.267a68e0.chunk.js.map",
    "static/js/7.94f906e0.chunk.js": "./static/js/7.94f906e0.chunk.js",
    "static/js/7.94f906e0.chunk.js.map": "./static/js/7.94f906e0.chunk.js.map",
    "static/js/8.b483dc55.chunk.js": "./static/js/8.b483dc55.chunk.js",
    "static/js/8.b483dc55.chunk.js.map": "./static/js/8.b483dc55.chunk.js.map",
    "static/js/9.e40e9f05.chunk.js": "./static/js/9.e40e9f05.chunk.js",
    "static/js/9.e40e9f05.chunk.js.map": "./static/js/9.e40e9f05.chunk.js.map",
    "main.css": "./static/css/main.6c130c2d.chunk.css",
    "main.js": "./static/js/main.74673f80.chunk.js",
    "main.js.map": "./static/js/main.74673f80.chunk.js.map",
    "runtime-main.js": "./static/js/runtime-main.848e419c.js",
    "runtime-main.js.map": "./static/js/runtime-main.848e419c.js.map",
    "static/css/12.bc874d76.chunk.css": "./static/css/12.bc874d76.chunk.css",
    "static/js/12.0da3f440.chunk.js": "./static/js/12.0da3f440.chunk.js",
    "static/js/12.0da3f440.chunk.js.map": "./static/js/12.0da3f440.chunk.js.map",
    "static/css/13.164730d6.chunk.css": "./static/css/13.164730d6.chunk.css",
    "static/js/13.6c109817.chunk.js": "./static/js/13.6c109817.chunk.js",
    "static/js/13.6c109817.chunk.js.map": "./static/js/13.6c109817.chunk.js.map",
    "static/css/14.164730d6.chunk.css": "./static/css/14.164730d6.chunk.css",
    "static/js/14.1738c1ee.chunk.js": "./static/js/14.1738c1ee.chunk.js",
    "static/js/14.1738c1ee.chunk.js.map": "./static/js/14.1738c1ee.chunk.js.map",
    "static/js/15.137988d2.chunk.js": "./static/js/15.137988d2.chunk.js",
    "static/js/15.137988d2.chunk.js.map": "./static/js/15.137988d2.chunk.js.map",
    "static/css/16.51c96efd.chunk.css": "./static/css/16.51c96efd.chunk.css",
    "static/js/16.473654dc.chunk.js": "./static/js/16.473654dc.chunk.js",
    "static/js/16.473654dc.chunk.js.map": "./static/js/16.473654dc.chunk.js.map",
    "static/css/17.4bc8d2c7.chunk.css": "./static/css/17.4bc8d2c7.chunk.css",
    "static/js/17.d6fc89ac.chunk.js": "./static/js/17.d6fc89ac.chunk.js",
    "static/js/17.d6fc89ac.chunk.js.map": "./static/js/17.d6fc89ac.chunk.js.map",
    "static/css/18.210f706b.chunk.css": "./static/css/18.210f706b.chunk.css",
    "static/js/18.af08e52a.chunk.js": "./static/js/18.af08e52a.chunk.js",
    "static/js/18.af08e52a.chunk.js.map": "./static/js/18.af08e52a.chunk.js.map",
    "static/css/19.210f706b.chunk.css": "./static/css/19.210f706b.chunk.css",
    "static/js/19.38dfd196.chunk.js": "./static/js/19.38dfd196.chunk.js",
    "static/js/19.38dfd196.chunk.js.map": "./static/js/19.38dfd196.chunk.js.map",
    "static/css/20.210f706b.chunk.css": "./static/css/20.210f706b.chunk.css",
    "static/js/20.0b36228a.chunk.js": "./static/js/20.0b36228a.chunk.js",
    "static/js/20.0b36228a.chunk.js.map": "./static/js/20.0b36228a.chunk.js.map",
    "static/css/21.050523cc.chunk.css": "./static/css/21.050523cc.chunk.css",
    "static/js/21.fe1a9223.chunk.js": "./static/js/21.fe1a9223.chunk.js",
    "static/js/21.fe1a9223.chunk.js.map": "./static/js/21.fe1a9223.chunk.js.map",
    "static/js/22.671bcc15.chunk.js": "./static/js/22.671bcc15.chunk.js",
    "static/js/22.671bcc15.chunk.js.map": "./static/js/22.671bcc15.chunk.js.map",
    "static/js/23.8bc8ba43.chunk.js": "./static/js/23.8bc8ba43.chunk.js",
    "static/js/23.8bc8ba43.chunk.js.map": "./static/js/23.8bc8ba43.chunk.js.map",
    "static/js/24.1b5b5a97.chunk.js": "./static/js/24.1b5b5a97.chunk.js",
    "static/js/24.1b5b5a97.chunk.js.map": "./static/js/24.1b5b5a97.chunk.js.map",
    "index.html": "./index.html",
    "precache-manifest.e293651c599237de812fdc13d2e2a9b3.js": "./precache-manifest.e293651c599237de812fdc13d2e2a9b3.js",
    "service-worker.js": "./service-worker.js",
    "static/css/0.1738d1df.chunk.css.map": "./static/css/0.1738d1df.chunk.css.map",
    "static/css/1.da01ecc2.chunk.css.map": "./static/css/1.da01ecc2.chunk.css.map",
    "static/css/12.bc874d76.chunk.css.map": "./static/css/12.bc874d76.chunk.css.map",
    "static/css/13.164730d6.chunk.css.map": "./static/css/13.164730d6.chunk.css.map",
    "static/css/14.164730d6.chunk.css.map": "./static/css/14.164730d6.chunk.css.map",
    "static/css/16.51c96efd.chunk.css.map": "./static/css/16.51c96efd.chunk.css.map",
    "static/css/17.4bc8d2c7.chunk.css.map": "./static/css/17.4bc8d2c7.chunk.css.map",
    "static/css/18.210f706b.chunk.css.map": "./static/css/18.210f706b.chunk.css.map",
    "static/css/19.210f706b.chunk.css.map": "./static/css/19.210f706b.chunk.css.map",
    "static/css/2.d63a6702.chunk.css.map": "./static/css/2.d63a6702.chunk.css.map",
    "static/css/20.210f706b.chunk.css.map": "./static/css/20.210f706b.chunk.css.map",
    "static/css/21.050523cc.chunk.css.map": "./static/css/21.050523cc.chunk.css.map",
    "static/css/3.9c5307d0.chunk.css.map": "./static/css/3.9c5307d0.chunk.css.map",
    "static/css/5.dcb8c350.chunk.css.map": "./static/css/5.dcb8c350.chunk.css.map",
    "static/css/6.0621f8ac.chunk.css.map": "./static/css/6.0621f8ac.chunk.css.map",
    "static/css/main.6c130c2d.chunk.css.map": "./static/css/main.6c130c2d.chunk.css.map",
    "static/js/13.6c109817.chunk.js.LICENSE.txt": "./static/js/13.6c109817.chunk.js.LICENSE.txt",
    "static/js/14.1738c1ee.chunk.js.LICENSE.txt": "./static/js/14.1738c1ee.chunk.js.LICENSE.txt",
    "static/js/15.137988d2.chunk.js.LICENSE.txt": "./static/js/15.137988d2.chunk.js.LICENSE.txt",
    "static/js/4.d9c41bed.chunk.js.LICENSE.txt": "./static/js/4.d9c41bed.chunk.js.LICENSE.txt",
    "static/js/5.e1ce8555.chunk.js.LICENSE.txt": "./static/js/5.e1ce8555.chunk.js.LICENSE.txt"
  },
  "entrypoints": [
    "static/js/runtime-main.848e419c.js",
    "static/js/15.137988d2.chunk.js",
    "static/css/main.6c130c2d.chunk.css",
    "static/js/main.74673f80.chunk.js"
  ]
}